tcga_code	alternative_name
ACC	Adrenocortical carcinoma
ACC	Adrenal Cortical Carcinoma
ACC	Adrenal Cortical Carcinomas
ACC	Adrenal cortical adenocarcinoma
ACC	Adrenal cortical tumor, malignant
ACC	Adrenal cortical tumour, malignant
ACC	Adrenocortical Carcinomas
ACC	Carcinoma, Adrenal Cortical
ACC	Carcinoma, Adrenocortical
ACC	Carcinomas, Adrenal Cortical
ACC	Carcinomas, Adrenocortical
BLCA	Carcinomas, Transitional Cell
BLCA	Cell Carcinoma, Transitional
BLCA	Cell Carcinomas, Transitional
BLCA	TCC-Transitional cell carcinoma
BLCA	Transitional Cell Carcinoma
BLCA	Transitional Cell Carcinomas
BLCA	Transitional carcinoma
BLCA	Urothelial carcinoma
BLCA	Bladder cancer
BLCA	Bladder carcinoma
BLCA	Bladder Urothelial Carcinoma
BRCA	Infiltrating ductal carcinoma of breast
BRCA	Invasive duct carcinoma of breast
BRCA	Invasive ductal carcinoma of breast
BRCA	BREAST
BRCA	BREAST CANCER METASTASES
BRCA	BREAST TUMOR-INITIATING CELLS
BRCA	Breast invasive carcinoma
BRCA	TRIPLE NEGATIVE SPORADIC BREAST CANCER
BRCA	BREAST CANCER STEM-LIKE CELLS
BRCA	ER_+ BREAST CANCER
BRCA	ER- BREAST CANCER
BRCA	NON-INVASIVE BREAST CANCER
BRCA	breast cancer stem cells
BRCA	BRCA;CANCER
BRCA	FAMILIAL BREAST CANCER
BRCA	BREAST CANCER SUSCEPTIBLITY
BRCA	BREAST CANCER WITH LYMPH NODE METASTASIS
BRCA	INVASIVE BREAST CARCINOMA
BRCA	BREAST CANCER METASTASIS
BRCA	TRIPLE NEGATIVE BREAST CANCER
BRCA	THIRD-SPHERE FORMING BREAST CANCER STEM CELL-LIKE CELLS
BRCA	OESTROGEN RECEPTOR-POSITIVE POSTMENOPAUSAL BREAST CANCER
BRCA	ER+ BREAST CANCER
BRCA	PROCR+/ESA+ BREAST CANCER STEM CELLS
BRCA	BREAST CANCER SELF-RENEWING TUMOR-INITIATING CELLS
CESC	Cancer of Cervix
CESC	Cancer of the Cervix
CESC	Cancer, Cervical
CESC	Cancer, Cervix
CESC	Cancers, Cervical
CESC	Cancers, Cervix
CESC	Cervical Cancer
CESC	Cervical Cancers
CESC	Cervical Neoplasm
CESC	Cervical Neoplasms
CESC	Cervix Cancer
CESC	Cervix Cancers
CESC	Cervix Neoplasm
CESC	Cervix Neoplasms
CESC	Neoplasm of uterine cervix
CESC	Neoplasm, Cervical
CESC	Neoplasm, Cervix
CESC	Neoplasms, Cervical
CESC	Neoplasms, Cervix
CESC	Tumor of cervix
CHOL	Cholangiocarcinomas
CHOL	Cholangiocellular carcinoma
CHOL	Cholangiocarcinoma
ESCA	Cancer of Esophagus
ESCA	Cancer of the Esophagus
ESCA	Cancer, Esophageal
ESCA	Cancer, Esophagus
ESCA	Cancers, Esophageal
ESCA	Cancers, Esophagus
ESCA	Esophageal Cancer
ESCA	Esophageal Cancers
ESCA	Esophageal Neoplasm
ESCA	Esophagus Cancer
ESCA	Esophagus Cancers
ESCA	Esophagus Neoplasm
ESCA	Esophagus Neoplasms
ESCA	Neoplasm of esophagus
ESCA	Neoplasm of oesophagus
ESCA	Neoplasm, Esophageal
ESCA	Neoplasm, Esophagus
ESCA	Neoplasms, Esophageal
ESCA	Neoplasms, Esophagus
ESCA	Tumor of esophagus
ESCA	Tumour of oesophagus
ESCA	Esophageal carcinoma
GBM	Astrocytoma, Grade IV
GBM	Astrocytomas, Grade IV
GBM	GLM - Glioblastoma multiforme
GBM	Giant Cell Glioblastoma
GBM	Giant Cell Glioblastomas
GBM	Glioblastoma Multiforme
GBM	Glioblastoma, Giant Cell
GBM	Glioblastomas
GBM	Glioblastomas, Giant Cell
GBM	Grade IV Astrocytoma
GBM	Grade IV Astrocytomas
GBM	GLM
LIHC	Carcinomas, Hepatocellular
LIHC	HBV+ HEPATOCELLULAR CARCINOMA
LIHC	HCC - Hepatocellular carcinoma
LIHC	Hepatocarcinoma
LIHC	Hepatocellular Carcinoma
LIHC	Hepatocellular Cancer
LIHC	Hepatocellular Carcinomas
LIHC	HEPTOCELLULAR CARCINOM
LIHC	HEPTOCELLULAR CARCINOMA
LIHC	HEPATOCELLULAR CARCINOMA PORTAL VEIN TUMOR THROMBUS (PVTT)
LIHC	HEPATOCELLULAR CANCER STEM CELLS
LIHC	HEPATOCELLUAR CARCINOMA
LIHC	HEPATOCELLULAR CARCINOMA STEM-LIKE CELLS
LIHC	CD133+ HEPATOCELLULAR CARCINOMA CANCER STEM-LIKE CELLS
LIHC	CD133+ HEPATOCELLULAR CARCINOMA CANCER STEM CELLS
LIHC	HEPATOCELLULAR CARCINOMA CANCER STEM-LIKE CELLS
LIHC	Hepatocellular carcinoma (clinical)
LIHC	Hepatocellular carcinoma, NOS
LIHC	Hepatoma
LIHC	Hepatoma, NOS
LIHC	Hepatoma, malignant
LIHC	Hepatomas
LIHC	Liver carcinoma
LIHC	Liver cell carcinoma
LIHC	Liver cell carcinoma (clinical)
LIHC	Malignant hepatoma
LIHC	Hepatocellular carcinoma NOS
LIHC	HC
LIHC	Liver hepatocellular carcinoma
LIHC	HEPATOCELLULAR
LIHC	HEPATOCELLULAR CARCINOMA INTRAHEPATIC METASTASES
DLBC	Anaplastic large B-cell lymphoma
DLBC	Angioendotheliomatosis
DLBC	Angiotropic lymphoma
DLBC	Diffuse Large B Cell Lymphoma
DLBC	Diffuse large B-cell lymphoma
DLBC	Diffuse malignant lymphoma - histiocytic
DLBC	Diffuse malignant lymphoma - large cell
DLBC	Diffuse non-Hodgkin's immunoblastic (diffuse) lymphoma
DLBC	Diffuse non-Hodgkin's lymphoma, immunoblastic
DLBC	Diffuse non-Hodgkin's lymphoma, immunoblastic (clinical)
DLBC	Diffuse non-Hodgkin's lymphoma, large cell
DLBC	Diffuse non-Hodgkin's lymphoma, large cell (clinical)
DLBC	Histiocyte-rich large B-cell lymphoma
DLBC	Histiocytic Lymphoma
DLBC	Histiocytic Lymphomas
DLBC	Immunoblastic malignant lymphoma - large cell
DLBC	Large Cell Lymphoma
DLBC	Large-Cell Lymphoma
DLBC	Large-Cell Lymphomas
DLBC	Lymphoma, Histiocytic
DLBC	Lymphoma, Large B-Cell, Diffuse
DLBC	Lymphoma, Large Cell
DLBC	Lymphoma, Large-Cell
DLBC	Lymphoma, Large-Cell, Immunoblastic
DLBC	Lymphomas, Histiocytic
DLBC	Lymphomas, Large-Cell
DLBC	Malignant lymphoma - immunoblastic
DLBC	Malignant lymphoma - large cell cleaved and non-cleaved
DLBC	Malignant lymphoma, centroblastic
DLBC	Malignant lymphoma, histiocytic, NOS
DLBC	Malignant lymphoma, histiocytic, diffuse
DLBC	Malignant lymphoma, large B-cell
DLBC	Malignant lymphoma, large B-cell, diffuse
DLBC	Malignant lymphoma, large B-cell, diffuse, centroblastic
DLBC	Malignant lymphoma, large B-cell, diffuse, no ICD-O subtype
DLBC	Malignant lymphoma, large cell
DLBC	Malignant lymphoma, large cell, cleaved
DLBC	Malignant lymphoma, large cell, diffuse 
DLBC	Malignant lymphoma, large cell, diffuse, NOS
DLBC	Malignant lymphoma, large cell, immunoblastic
DLBC	Malignant lymphoma, large cell, noncleaved
DLBC	Malignant lymphoma, large cell, noncleaved, diffuse
DLBC	Malignant lymphoma, noncleaved
DLBC	Malignant lymphoma, noncleaved, diffuse
DLBC	Reticulosarcoma
DLBC	Reticulosarcomas
DLBC	Reticulum Cell Sarcoma
DLBC	Reticulum-Cell Sarcoma
DLBC	Reticulum-Cell Sarcomas
DLBC	Sarcoma, Reticulum Cell
DLBC	Sarcoma, Reticulum-Cell
DLBC	Sarcomas, Reticulum-Cell
DLBC	T-cell rich large B-cell lymphoma
DLBC	T-cell rich/histiocyte-rich large B-cell lymphoma
DLBC	Malignant lymphoma, immunoblastic type
DLBC	Malignant lymphoma, large cell, diffuse NOS
DLBC	Lymphoid Neoplasm Diffuse Large B-cell Lymphoma
DLBC	DLBCL
NHL	Non-Hodgkin's lymphoma
NHL	NON-HODGKIN LYMPHOMA
NHL	ANAPLASTIC LARGE CELL LYMPHOMA
NHL	ALCL
HL	HODGKIN LYMPHOMA
HL	HODGKIN'S LYMPHOMA
HL	CLASSIC HODGKIN LYMPHOMA
MESO	Mesothelioma
THYM	Carcinoma, Thymic
THYM	Carcinomas, Thymic
THYM	Thymic Carcinoma
THYM	Thymic Carcinomas
THYM	Thymomas
THCA	Cancer of Thyroid
THCA	Cancer of the Thyroid
THCA	Cancer, Thyroid
THCA	Cancers, Thyroid
THCA	Neoplasm of thyroid gland
THCA	Neoplasm, Thyroid
THCA	Neoplasms, Thyroid
THCA	Thyroid Cancer
THCA	THYROID
THCA	THYROID MEDULLARY CARCINOMA
THCA	THYROID FOLLICULAR ADENOMA AND CARCINOMA
THCA	Thyroid Cancers
THCA	Thyroid Neoplasm
THCA	Thyroid tumor
THCA	Tumour of thyroid gland
THCA	Papillary carcinoma
THCA	Thyroid papillary cancer
THCA	Thyroid papillary carcinoma
THCA	TH
THCA	Thyroid carcinoma
THCA	THYROID ANAPLASTIC CARCINOMA
THCA	ANAPLASTIC THYROID CANCER
THCA	MEDULLARY THYROID CANCER
THCA	FAMILIAL PAPILLARY THYROID CANCER
THCA	THYROID HURTHLE CELL CARCINOMA
THCA	FOLLICULAR THYROID CARCINOMA
THCA	PAPILLARY THYROID CARCINOMA
BRCA	BREAST CANCER
BRCA	ESTROGEN-RECEPTOR POSITIVE BREAST CANCER
BRCA	INFLAMMATORY BREAST CARCINOMA
BRCA	HER2-RECEPTOR POSITIVE BREAST CANCER
BRCA	TRIPLE-RECEPTOR NEGATIVE BREAST CANCER
BRCA	HER2-RECEPTOR NEGATIVE BREAST CANCER
BRCA	HER2+ BREAST CANCER
BRCA	BREAST CARCINOMA
BRCA	BREAST ADENOCARCINOMA
BRCA	BREAST_CANCER
BRCA	BRCA
BRCA	INVASIVE BREAST CANCER
BRCA	ERALPHA-POSITIVE BREAST CANCER
BRCA	BREAST CANCER SUSCEPTIBILITY
OV	OVARIAN CANCER
OV	OVARIAN CARCINOMA
OV	EPITHELIAL OVARIAN CANCER
OV	OVARIAN GRANULOSA CELL TUMOR
OV	OVARIAN SEROUS CARCINOMA
OV	OVARIAN_CANCER
OV	OVARIAN
OV	OVARY ADENOCARCINOMA
OV	OVCA
OV	Ovarian low-grade serous carcinoma
OV	Ovarian low grade serous carcinoma
OV	Ovarian serous cystadenocarcinoma
OV	LOW-GRADE SEROUS OVARIAN CANCER
OV	BRCA/OV-PR
OV	ovarian tumours
OV	cancer, ovarian
OV	OV;CANCER
OV	carcinoma, ovarian
OV	cancer, Ovarian, low-grade serous
OV	OVARIAN EPITHELIAL CARCINOMA
OV	EPITHELIAL OVARIAN CARCINOMA
OV	OVARIAN ADENOCARCINOMA
OV	CD44+/CD117+ OVARIAN CANCER STEM CELLS
OV	CD133/1+ OVARIAN CANCER STEM CELLS
HGSOC	Ovarian high grade serous carcinoma
HGSOC	cancer, Ovarian, high-grade serous
HGSOC	HGSOC
HGSOC	Ovarian high-grade serous carcinoma
HGSOC	HIGH-GRADE SEROUS OVARIAN CARCINOMA
CANCER	TUMOR
CANCER	cancer_type
CANCER	ALL TUMORS
PANCANCER	Pan cancer
PANCANCER	Pan-cancer
PANCANCER	PANCAN
PAAD	Pancreatic
PAAD	Pancreatic cancer
PAAD	PANCREATIC_CANCER
PAAD	Pancreatic adenocarcinoma
PAAD	PA
PAAD	PANCREAS ADENOCARCINOMA
PRAD	Prostate cancer
PRAD	PROSTATE CARCINOMA
PRAD	PROSTATE
PRAD	PRAD
PRAD	PRAD;CANCER
PRAD	Prostate adenocarcinoma
PRAD	ANDROGEN-INDEPENDENT PROSTATE CANCER
PRAD	PROSTATE CANCER STEM CELLS
PRAD	BONE METASTASIS OF PROSTATE CANCER
PRAD	PROSTATE CANCER CD44+ TUMOR-INITIATING CELLS
PRAD	CASTRATION-RESISTANT PROSTATE CANCER
PRAD	CD44+ PROSTATE CANCER STEM CELLS
PRAD	AGRESSIVE PROSTATE CANCER
PRAD	P53-DEFECTIVE PROSTATE CANCER
PRAD	HORMONE-REFRACTORY PROSTATE CARCINOMA
COADREAD	Colon cancer
COADREAD	COLORECTAL CANCER
COADREAD	COLORECTAL CARCINOMA
COADREAD	COLORECTAL
COADREAD	COLORECTAL CANCER STEM-LIKE CELLS
COADREAD	COLORECTAL CANCER STEM CELLS
COADREAD	HEREDITARY NON-POLYPOSIS COLORECTAL CANCER
COADREAD	COAD/READ
COADREAD	COAD
COADREAD	READ
COADREAD	Colon adenocarcinoma
COADREAD	Rectum adenocarcinoma
COADREAD	COAREA
COADREAD	COLON
COADREAD	RECTUM
COADREAD	Rectum cancer
COADREAD	COREAD
COADREAD	COARED
COADREAD	Lynch syndrome
COADREAD	Hereditary nonpolyposis colorectal cancer
COADREAD	Colon and/or rectum adenocarcinoma
COADREAD	COC-PR
COADREAD	colon carcinoma
COADREAD	P53+ COLON CANCER
COADREAD	P53-MUTATED COLON CANCER
COADREAD	COLON CANCER STEMS CELLS
COADREAD	COLON CANCER LIVER METASTASIS
COADREAD	COLON CANCER PROGENITOR CELLS (CD133+)
COADREAD	COLON MUCINOUS ADENOCARCINOMA
LC	Lung adenocarcinoma
LC	Lung cancer
LC	LUNG CARCINOMA
LC	Lung_cancer
LC	LUNG ADENOSARCOMA
LC	LUNG ACINAR ADENOCARCINOMA
LC	BRONCHOGENIC LUNG ADENOCARCINOMA
LC	LUNG
LC	LUNG CANCER BONE METASTASIS
LC	LUNG CANCER METASTASIS
LC	LUNG CANCER WITH NEUROENDOCRINE
SCLC	Small cell lung carcinoma
SCLC	SMALL CELL LUNG CANCER
SCLC	LUNG SMALL CELL CARCINOMA
SCLC	SMALL CELL LUNG CANCER STEM-LIKE CELLS
NSCLC	Non-small-cell lung carcinoma
NSCLC	NON-SMALL CELL LUNG CANCER CELL
NSCLC	EGFR MUTANT NON-SMALL CELL LUNG CANCER
NSCLC	Lung squamous cell carcinoma
NSCLC	Lung large cell carcinoma
NSCLC	Non-small cell lung carcinoma
NSCLC	LUSC
NSCLC	LUAD
NSCLC	Non-small cell lung cancer
LAML	Acute Myelomonocytic Leukemia
LAML	Acute Myelomonocytic Leukemias
LAML	Acute myelomonocytic leukaemia (clinical)
LAML	Acute myelomonocytic leukemia (clinical)
LAML	Acute myelomonocytic leukemia, FAB M4
LAML	Leukemia, Acute Myelomonocytic
LAML	Leukemia, Myeloid, Acute, M4
LAML	Leukemia, Myeloid, Naegeli-Type
LAML	Leukemia, Naegeli-Type Myeloid
LAML	Leukemias, Acute Myelomonocytic
LAML	Myeloid Leukemia, Acute, M4
LAML	Myeloid Leukemia, Naegeli Type
LAML	Myeloid Leukemia, Naegeli-Type
LAML	Myelomonocytic Leukemia, Acute
LAML	Myelomonocytic Leukemias, Acute
LAML	Naegeli-Type Myeloid Leukemia
LAML	Acute myelomonocytic leukaemia
LAML	AML
LAML	Acute promyelocytic leukemia
LAML	Acute Myeloid Leukemia
LAML	KIT-DRIVEN ACUTE MYELOID LEUKEMIA
LAML	NUCLEOPHOSMIN1 MUTATED ACUTE MYELOID LEUKAEMIA
CML	Chronic myeloid leukemia
CML	Chronic myeloid leukaemia
CML	Chronic myelocytic leukemia
CML	Chronic myelocytic leukaemia
CML	myelodysplastic syndrome
CML	Chronic Myelogenous Leukemia
CML	CHRONIC MYELOID LEUKEMIA CD34+ CELLS
CMML	Chronic Myelomonocytic Leukaemia
CMML	Chronic Myelomonocytic Leukemia
CLL	Chronic lymphocytic leukaemia
CLL	B-CLL
CLL	T-CLL
CLL	B-cell chronic lymphocytic leukemia
CLL	B-cell chronic lymphocytic leukaemia
CLL	Chronic Lymphocytic Leukemia
ALL	Acute lymphoblastic leukaemia
ALL	MLL-AF4 ACUTE LYMPHOCYTIC LEUKEMIA
ALL	ACUTE LYMPHOCYTIC LEUKEMIA
ALL	T-cell acute lymphoblastic leukaemia
ALL	T-cell acute lymphoblastic leukemia
ALL	B-cell acute lymphoblastic leukaemia
ALL	B-cell acute lymphoblastic leukemia
ALL	T lymphoblastic leukemia/lymphoma
ALL	T lymphoblastic leukaemia/lymphoma
ALL	B lymphoblastic leukemia/lymphoma
ALL	B lymphoblastic leukaemia/lymphoma
ALL	Acute lymphoblastic leukemia
ALL	T-ALL
ALL	B-ALL
ALL	PRE B-ALL
LEU	Leukemia
LEU	LEUKEMIC B-CELLS
LEU	CHRONIC MYELOGENOUS LEUKEMIA|ACUTE LYMPHOBLASTIC LEUKEMIA
LEU	ATYPICAL CHRONIC MYELOID LEUKEMIA
LEU	OTHER ACUTE LEUKEMIA
MM	plasma cell myeloma
MM	MYMA
MM	Multiple myeloma
GBM	Glioblastoma
GBM	GLIOBLASTOMA_JHU
GBM	GLIOBLASTOMA_TCGA
GBM	MESENCHYMAL SUBTYPE OF GLIOBLASTOMA MULTIFORME
GBM	PRONEURAL SUBTYPE GLIOBLASTOMA
GBM	GLIOBLASTOMA STEM CELLS
GBM	CD133+ GLIOBLASTOMA CANCER STEM CELLS
GBM	SUPRATENTORIAL GLIOBLASTOMA MULTIFORME
EC	Uterine cancer
EC	Cancer of the uterus
EC	Endometrial carcinoma
EC	ENDOMETRIUM
EC	ENDOMETRIAL
EC	Endometrial cancer
EC	ENDOMETRIAL ENDOMETRIOID CARCINOMA
EC	ENDOMETRIOID ENDOMETRIAL CANCER
EC	ENDOMETRIAL SEROUS ADENOCARCINOMA
EC	ER_+ ENDOMETRIOID ADENOCARCINOMA
EC	TYPE II ENDOMETRIAL CARCINOMA
EC	ENDOMETRIAL STROMAL SARCOMA
UCS	Uterine Carcinosarcoma
UCEC	Uterine Corpus Endometrial Carcinoma
STAD	Stomach cancer
STAD	Gastric cancer
STAD	GASTRIC CARCINOMA
STAD	SCIRRHOUS GASTRIC CANCER
STAD	GASTROINTESTINAL CANCER
STAD	P53-MUTANT GASTRIC CANCER
STAD	FAMILIAL GASTRIC CARCINOMA
STAD	GASTRIC
STAD	Gastric adenocarcinoma
STAD	Stomach carcinoma
STAD	ST
STAD	Stomach adenocarcinoma
GIST	Gastrointestinal stromal tumour
SKCM	CM
SKCM	Skin Cutaneous Melanoma
SKCM	CUTANEOUS MELANOMA
SKCM	SKIN MELANOMA
SKCM	Skin cancer
MEL	Melanoma
MEL	FAMILIAL MALIGNANT MELANOMA
MEL	MALIGNANT MELANOMA
MEL	Mucosal Melanoma
UVM	Uveal Melanoma
THYM	Thymic tumor
THYM	Thymoma
THYM	Thymic cancer
RCC	Renal Clear cell carcinoma
RCC	Clear cell renal cell carcinoma
RCC	RCCC
RCC	Renal Cell Carcinoma
PANCANCER	Pancancer
CANCER	Any cancer
CANCER	Cancer-PR
ADE	Adenocarcinoma
BCC	Basal Cell Carcinoma
CAR	Carcinoma
CESC	Cervical squamous cell carcinoma and endocervical adenocarcinoma
CESC	SQUAMOUS CERVICAL CANCER
GLI	Malignant glioma
GLI	Glioma
HNSC	Head and Neck squamous cell carcinoma
NPC	Nasopharyngeal cancer
KICH	Kidney Chromophobe
KIRC	Kidney renal clear cell carcinoma
KIRP	Kidney renal papillary cell carcinoma
LGG	Brain Lower Grade Glioma
LY	Lymphoma
LV	Liver_cancer
MPN	Myeloproliferative neoplasm
NB	Neuroblastoma
NB	Medulloblastoma
NB	BRAIN MEDULLOBLASTOMA
NB	NON-SONIC HEDGEHOG-MEDULLOBLASTOMA
NB	MEDULLOBLASTOMA PREDISPOSITION
NB	FAMILIAL NEUROBLASTOMA
NB	NEUROBLASTOMA WITH 1P36 DELETION
NB	NEUROBLASTOMA WITH MYCN AMPLIFICATION
OS	osteogenic sarcoma
PCPG	Pheochromocytoma and Paraganglioma
PLEN	Plexiform neurofibroma
RB	retinoblastoma
SARC	Sarcoma
SCHW	Schwannoma
SCC	Squamous cell carcinoma
TGCT	Testicular Germ Cell Tumors
VHL	Von Hippel-Lindau disease
VHL	Von Hippel-Lindau syndrome
